    <style type="text/css">
    #header {
        color: #111;
        background-color: #efe;
        height: 20px;
    }
    </style>

        <script type="text/javascript">
    function addContent() {
        var node = document.createElement("div");
        var textNode = document.createTextNode("Hi! I'm a text. " + Math.random() * 10000);
        node.appendChild(textNode);
        var content = document.getElementById("content");
        content.appendChild(node);
    };
    </script>

    <script type="text/javascript">
    function addContent() {
        var node = document.createElement("div");
        var message = document.getElementById("message").value;
        if (!message) {
            message = Math.random() * 10000;
        }
        var textNode = document.createTextNode("Hi! I'm a text. " + message);
        node.appendChild(textNode);
        var content = document.getElementById("content");
        content.appendChild(node);
    }
    </script>


    <input id="message" type="text" />
    <button>Hi</button>

    
<line> 
    <value />
    <key />
</line>        
//value[../key[text()="%s"]]/text()